<?xml version="1.0" encoding="utf-8"?>
<!-- Generator: Adobe Illustrator 18.1.1, SVG Export Plug-In . SVG Version: 6.00 Build 0)  -->
<!DOCTYPE svg PUBLIC "-//W3C//DTD SVG 1.1//EN" "http://www.w3.org/Graphics/SVG/1.1/DTD/svg11.dtd">
<svg version="1.1" id="レイヤー_1" xmlns="http://www.w3.org/2000/svg" xmlns:xlink="http://www.w3.org/1999/xlink" x="0px"
	 y="0px" width="76.3px" height="58.5px" viewBox="0 0 76.3 58.5" enable-background="new 0 0 76.3 58.5" xml:space="preserve">
<g>
	<g>
		<g>
			<g>
				<path fill="#221714" d="M24.9,54.5C24.9,54.5,24.9,54.5,24.9,54.5c0,0.3,0,0.8,0,1.2c0,0.3,0,0.5,0.1,0.6
					c0.1,0.2,0.3,0.3,0.5,0.3c0.2,0,0.3,0,0.5-0.1c0,0,0,0.3,0,0.3c-0.2,0.2-0.5,0.3-0.8,0.3c-0.3,0-0.6-0.1-0.7-0.4
					c-0.1-0.2-0.1-0.4-0.1-0.8c0-0.4,0-1,0-1.3c0,0,0-0.1,0-0.1l-0.4,0c0-0.1,0-0.2,0.1-0.3c0.1,0,0.3-0.1,0.4-0.1c0,0,0,0,0-0.1
					v-0.7c0.1-0.1,0.4-0.2,0.5-0.3c0,0,0.1,0,0.2,0c0,0.1,0,0.5,0,1c0,0,0,0,0,0c0.3,0,0.8,0,1,0c0,0.1-0.1,0.3-0.1,0.5
					C25.7,54.5,25.2,54.5,24.9,54.5z"/>
				<path fill="#221714" d="M29.2,54.2c0,0,0,0.1,0,0.1c0,0.1-0.2,0.4-0.2,0.5c0,0,0,0-0.1,0c-0.2-0.1-0.3-0.2-0.5-0.2
					c-0.1,0-0.3,0.2-0.4,0.3c0,0-0.1,0.1-0.1,0.2c0,0.6,0,1.2,0,1.4c0,0.1,0,0.2,0.2,0.2c0.1,0,0.3,0.1,0.5,0.1c0,0,0,0.2,0,0.3
					c-0.1,0-0.6,0-0.9,0c-0.2,0-0.6,0-0.8,0c0,0,0-0.3,0-0.3c0.1,0,0.2,0,0.3-0.1c0.1,0,0.1-0.1,0.1-0.2c0-0.1,0-0.7,0-1.1
					c0-0.2,0-0.4,0-0.5c0-0.1-0.1-0.2-0.4-0.3c0-0.1,0-0.2,0-0.2c0.3,0,0.7-0.2,1-0.3c0,0,0,0,0,0c0,0.1,0,0.4,0,0.5c0,0,0,0,0,0
					c0.1-0.2,0.3-0.3,0.5-0.4c0.1-0.1,0.2-0.1,0.4-0.1C29,54,29.1,54,29.2,54.2z"/>
				<path fill="#221714" d="M31.7,54.7c-0.1-0.2-0.3-0.3-0.5-0.3c-0.2,0-0.3,0-0.3,0.1c-0.1,0.1-0.2,0.3-0.3,0.5
					c0,0-0.3-0.1-0.3-0.2c0-0.1,0.1-0.5,0.2-0.5c0.3-0.2,0.8-0.4,1-0.4c0.3,0,0.6,0.2,0.8,0.4c0.1,0.2,0.2,0.4,0.2,0.7
					c0,0.4,0,0.9,0,1.2c0,0.2,0.1,0.3,0.3,0.3c0.1,0,0.2,0,0.3,0c0,0,0,0.3,0,0.3c-0.2,0.2-0.4,0.2-0.6,0.2c-0.2,0-0.4-0.1-0.4-0.2
					c0,0,0-0.1-0.1-0.2c0,0,0,0,0,0c-0.4,0.3-0.7,0.4-0.9,0.4c-0.1,0-0.3-0.1-0.4-0.2c-0.2-0.2-0.3-0.4-0.3-0.6
					c0-0.2,0.1-0.4,0.2-0.5c0.3-0.1,1.1-0.3,1.4-0.5c0,0,0-0.1,0.1-0.1c0,0,0-0.1,0-0.1C31.8,55,31.8,54.8,31.7,54.7z M31.7,55.6
					c-0.2,0.1-0.7,0.2-0.8,0.3c0,0-0.1,0.1-0.1,0.2c0,0.3,0.2,0.5,0.5,0.5c0.1,0,0.3,0,0.3-0.1c0.1,0,0.1-0.1,0.1-0.2
					C31.8,56.2,31.8,55.8,31.7,55.6C31.8,55.6,31.8,55.6,31.7,55.6z"/>
				<path fill="#221714" d="M37.9,56.8c-0.2,0.2-0.5,0.3-0.8,0.3c-0.3,0-0.6-0.1-0.7-0.4c-0.1-0.2-0.1-0.4-0.1-0.8c0-0.4,0-1,0-1.3
					c0,0,0-0.1,0-0.1h-1.4c0,0,0,0,0,0c0,0.3,0,0.8,0,1.2c0,0.3,0,0.5,0,0.6c0.1,0.2,0.3,0.3,0.5,0.3c0.2,0,0.3,0,0.5-0.1
					c0,0.1,0,0.3,0,0.3c-0.2,0.2-0.5,0.3-0.8,0.3c-0.3,0-0.6-0.1-0.7-0.4c-0.1-0.2-0.1-0.4-0.1-0.8c0-0.4,0-1,0-1.3
					c0,0,0-0.1-0.1-0.1l-0.4,0c0-0.1,0.1-0.2,0.1-0.3c0.1,0,0.3-0.1,0.4-0.1c0,0,0,0,0-0.1v-0.6c0.1-0.1,0.4-0.2,0.5-0.3
					c0,0,0.1,0,0.2,0c0,0.1,0,0.4,0,0.9c0,0,0,0,0,0h1.4c0,0,0,0,0-0.1v-0.7c0.1-0.1,0.4-0.2,0.5-0.3c0,0,0.1,0,0.2,0
					c0,0.1,0,0.5,0,1c0,0,0,0,0,0c0.4,0,0.8,0,1,0c0,0.1-0.1,0.3-0.1,0.5c-0.2,0-0.6,0-0.9,0c0,0,0,0,0,0c0,0.3,0,0.8,0,1.2
					c0,0.3,0,0.5,0.1,0.6c0.1,0.2,0.3,0.3,0.5,0.3c0.2,0,0.3,0,0.5-0.1C37.9,56.5,37.9,56.7,37.9,56.8z"/>
				<path fill="#221714" d="M42,55.5c0,0.6-0.2,1.1-0.7,1.3c-0.2,0.1-0.6,0.3-0.9,0.3c-1.1,0-1.5-0.8-1.5-1.6c0-0.6,0.3-1,0.6-1.2
					c0.3-0.2,0.6-0.3,1-0.3C41.5,54,42,54.6,42,55.5z M40,54.4c-0.2,0.1-0.4,0.4-0.4,0.9c0,0.9,0.4,1.4,1,1.4c0.2,0,0.3,0,0.4-0.2
					c0.2-0.1,0.3-0.4,0.3-0.9c0-0.8-0.4-1.4-1-1.4C40.2,54.3,40.1,54.4,40,54.4z"/>
				<path fill="#221714" d="M45.6,54.2c0,0,0,0.1,0,0.1c0,0.1-0.2,0.4-0.2,0.5c0,0-0.1,0-0.1,0c-0.2-0.1-0.3-0.2-0.5-0.2
					c-0.1,0-0.3,0.2-0.4,0.3c0,0-0.1,0.1-0.1,0.2c0,0.6,0,1.2,0,1.4c0,0.1,0,0.2,0.2,0.2c0.1,0,0.3,0.1,0.5,0.1c0,0,0,0.2,0,0.3
					c-0.1,0-0.6,0-0.9,0c-0.2,0-0.6,0-0.8,0c0,0,0-0.3,0-0.3c0.1,0,0.2,0,0.3-0.1c0.1,0,0.1-0.1,0.1-0.2c0-0.1,0-0.7,0-1.1
					c0-0.2,0-0.4,0-0.5c0-0.1-0.1-0.2-0.4-0.3c0-0.1,0-0.2,0-0.2c0.3,0,0.7-0.2,1-0.3c0,0,0,0,0,0c0,0.1,0,0.4,0,0.5c0,0,0,0,0,0
					c0.2-0.2,0.3-0.3,0.5-0.4C44.9,54,45,54,45.2,54C45.3,54,45.5,54,45.6,54.2z"/>
				<path fill="#221714" d="M48.1,57c-0.1,0-0.3,0-0.8,0c-0.3,0-0.6,0-0.7,0c0,0-0.1-0.3,0-0.3c0.1,0,0.2,0,0.3-0.1
					c0.1,0,0.1-0.1,0.1-0.2c0-0.2,0-0.6,0-1v-0.7c0,0,0-0.1-0.1-0.2c-0.1-0.1-0.2-0.1-0.4-0.2c0,0,0-0.2,0-0.2c0.2,0,0.7-0.1,1-0.2
					v1.3c0,0.4,0,0.9,0,1.2c0,0.1,0,0.2,0.1,0.2c0.1,0,0.1,0,0.3,0.1C48.2,56.8,48.1,57,48.1,57z M47.5,53.4c0,0-0.3,0.1-0.4,0
					C47,53.3,47,53.2,46.9,53c0,0,0-0.2,0-0.2c0.1-0.1,0.2-0.2,0.4-0.2c0.1,0,0.2,0,0.2,0.1c0,0,0.1,0.2,0.1,0.2
					C47.7,53.1,47.6,53.3,47.5,53.4z"/>
				<path fill="#221714" d="M50.8,54.7c-0.1-0.2-0.3-0.3-0.5-0.3c-0.2,0-0.3,0-0.3,0.1c-0.1,0.1-0.2,0.3-0.3,0.5
					c0,0-0.3-0.1-0.3-0.2c0-0.1,0.1-0.5,0.2-0.5c0.3-0.2,0.8-0.4,1-0.4c0.3,0,0.6,0.2,0.7,0.4c0.1,0.2,0.2,0.4,0.2,0.7
					c0,0.4,0,0.9,0,1.2c0,0.2,0.1,0.3,0.3,0.3c0.1,0,0.2,0,0.3,0c0,0,0,0.3,0,0.3c-0.2,0.2-0.5,0.2-0.6,0.2c-0.2,0-0.4-0.1-0.4-0.2
					c0,0,0-0.1-0.1-0.2c0,0,0,0,0,0c-0.4,0.3-0.7,0.4-0.9,0.4c-0.1,0-0.3-0.1-0.4-0.2c-0.2-0.2-0.3-0.4-0.3-0.6
					c0-0.2,0.1-0.4,0.2-0.5c0.3-0.1,1.1-0.3,1.4-0.5c0,0,0-0.1,0-0.1c0,0,0-0.1,0-0.1C50.9,55,50.9,54.8,50.8,54.7z M50.8,55.6
					c-0.2,0.1-0.7,0.2-0.8,0.3c0,0-0.1,0.1-0.1,0.2c0,0.3,0.2,0.5,0.5,0.5c0.1,0,0.2,0,0.3-0.1c0.1,0,0.1-0.1,0.1-0.2
					C50.9,56.2,50.9,55.8,50.8,55.6C50.9,55.6,50.8,55.6,50.8,55.6z"/>
			</g>
		</g>
		<g>
			<path fill="#6E748B" d="M11.9,27c0-0.4-0.3-0.7-0.7-0.8c-0.3,0-0.5,0-0.9,0c-0.1,0-0.3,0-0.5,0c-0.4,0-0.8,0.4-0.8,0.8
				c0,0.4,0,1,0,1.7c0,0.6,0,1.3-0.1,1.9c-1,0-2.2,0.1-3.2,0.1c-0.2,0-0.3,0-0.5,0c0-0.4,0-0.8,0-1.2c0-0.8-0.1-1.6,0-2.1
				c0-0.2,0-0.4-0.2-0.6c-0.1-0.2-0.3-0.3-0.6-0.3c-0.3,0-1.2,0-2.6,0c-0.4,0-0.8,0.4-0.8,0.8c0,0.1-0.1,8.1-0.1,9.8
				c0,1.7-0.2,7.8-0.2,7.9c0,0.4,0.3,0.8,0.7,0.8c0.2,0,0.5,0,1,0c0.4,0,0.8,0,1.2,0c0.3,0,0.6,0,0.8,0c0.4,0,0.8-0.4,0.8-0.8
				c0-1.4,0-3.6,0-5.8c0-1.7,0-3.3,0-4.4c0.5,0,1,0,1.5,0c0.8,0,1.6,0,2.4-0.1c0,0.9,0,2.3,0,4.1c0,1.5,0,3.3,0,3.5
				c-0.1,1-0.1,2,0,2.9c0,0.4,0.4,0.8,0.8,0.8c0,0,0,0,0,0l1.2,0c0.4,0,0.8-0.4,0.8-0.8c0-0.7,0-2.2,0-3.5c0-1.1,0-2.1,0-2.6
				c0-1.4,0-2.6,0-3.7C11.9,32.4,11.9,30.1,11.9,27z"/>
			<path fill="#6E748B" d="M18.4,39.3c0-1-0.1-2-0.1-2.9c-0.1-1.9-0.1-3.8-0.1-5.7c0-0.2-0.1-0.4-0.2-0.6c0,0,0,0,0,0c0,0,0,0,0,0
				c0.5-0.5,0.7-1.2,0.6-1.8c-0.3-2.1-2-2.1-2.9-2.1c-1.4,0-2.3,0.9-2.3,2.2c0,0.7,0.3,1.4,0.8,1.8c-0.1,0.1-0.1,0.3-0.1,0.5
				c0,1,0,1.8-0.1,2.7c0,1.1-0.1,2.2,0,3.4c0,0.7,0.1,3.1,0.1,5.3c0,1.1,0,2.2,0.1,2.9c0,0.4,0.4,0.8,0.8,0.8c0,0,2.3,0,2.9-0.1
				c0.4-0.1,0.7-0.4,0.7-0.9c-0.1-1.1-0.1-2.8-0.1-4.1C18.4,40.1,18.4,39.7,18.4,39.3z M16.5,43c-0.2,0-0.4,0-0.6,0.1
				c0-0.5,0-1.2,0-1.7c0.2,0,0.4,0,0.6,0c0,0,0,0.1,0,0.1C16.5,42,16.5,42.5,16.5,43z M16.5,37.1V38h-0.6c0-0.3,0-0.6,0-0.9
				C16.1,37.1,16.3,37.1,16.5,37.1z M16.4,34v0.4h-0.6c0-0.1,0-0.3,0-0.4C16,34,16.2,34,16.4,34z"/>
			<path fill="#6E748B" d="M31.7,39.1c-0.1-0.4-0.5-0.6-0.8-0.6c-0.2,0-0.5,0-0.7,0c-0.4,0-0.8,0-1.2,0c-0.2,0-0.5,0.2-0.6,0.4
				c-0.1,0.2-0.2,0.5-0.1,0.7c0.1,0.2,0.1,0.8,0,1.3C28,40,27.8,39,27.6,38c-0.2-0.9-0.3-1.6-0.4-2.1c1.3-0.6,2.1-1.1,2.6-1.7
				c0.9-1.1,1.2-2.3,1.1-3.5c-0.5-4.3-5.4-4.3-7-4.3c-0.4,0-0.9,0-1.3,0c-0.6,0-0.9,0.1-1.4,0.2c-0.1,0-0.2,0-0.4,0.1
				c-0.4,0.1-0.7,0.4-0.6,0.8c0,0.6,0.1,1.1,0.1,1.7c0,0.5,0.1,1,0.1,1.4c0.1,3.6,0.1,4.2,0.1,7.7l0,1.6c0,0.3,0,0.6,0,0.9
				c0,1.1,0,2.6,0,4.1c0,0.4,0.3,0.8,0.7,0.8c0.2,0,0.4,0,0.7,0c0.3,0,0.6,0,0.9,0c0.3,0,0.5,0,0.8,0c0.2,0,0.4-0.1,0.6-0.2
				c0.1-0.2,0.2-0.4,0.2-0.6c-0.1-1.9-0.2-5.5-0.2-7.8c0,0,0,0,0.1,0c0.1,0.5,0.2,1,0.3,1.5c0.1,0.5,0.2,1,0.3,1.5
				c1.1,5.5,2.6,5.5,3.1,5.5c0,0,0,0,0.1,0l0,0c0.8,0,1.9-0.7,2.8-1.8C31.7,42.3,32.1,40.6,31.7,39.1z"/>
			<path fill="#6E748B" d="M48,39.3c0-1-0.1-2-0.1-3c-0.1-1.9-0.1-3.8-0.1-5.7c0-0.2-0.1-0.4-0.2-0.6c0,0,0,0,0,0s0,0,0,0
				c0.5-0.5,0.7-1.2,0.6-1.8c-0.3-2.1-2-2.1-2.9-2.1c-1.4,0-2.3,0.9-2.3,2.2c0,0.7,0.3,1.4,0.8,1.8c-0.1,0.1-0.1,0.3-0.1,0.5
				c0,1,0,1.8-0.1,2.7c0,1.1-0.1,2.2,0,3.4c0,0.7,0.1,3.1,0.1,5.3c0,1.1,0,2.2,0.1,2.9c0,0.4,0.4,0.8,0.8,0.8c0,0,2.3,0,2.9-0.1
				c0.4-0.1,0.7-0.4,0.7-0.9c-0.1-1.1-0.1-2.8-0.1-4.1C48.1,40.1,48.1,39.7,48,39.3z M46.1,42.9c-0.1,0-0.3,0-0.4,0
				c0-0.4,0-0.9,0-1.3c0.1,0,0.3,0,0.4,0c0,0,0,0.1,0,0.1C46,42.1,46,42.5,46.1,42.9z M46.1,37.3v0.6h-0.4c0-0.2,0-0.4,0-0.6
				C45.8,37.3,45.9,37.3,46.1,37.3z M46,34.1v0.2h-0.4c0-0.1,0-0.2,0-0.2C45.7,34.1,45.8,34.1,46,34.1z"/>
			<path fill="#6E748B" d="M55.5,33.9c-0.3-0.3-0.6-0.6-1-0.9c-0.7-0.5-1.6-1.2-1.6-1.8c0-0.3,0-0.7,0.2-0.9
				c0.2-0.2,0.4-0.2,0.7-0.2c0.1,0,0.3,0,0.4,0c0.5,0.1,0.5,0.3,0.5,0.7c0,0.1,0,0.3,0,0.4c0.1,0.4,0.4,0.6,0.8,0.6h0.2
				c0.1,0,0.3,0,0.4,0c0.6,0,0.9,0,1.1-0.1c0.3-0.1,0.6-0.4,0.6-0.8c0-3.2-1.6-4.2-3-4.4c-0.3-0.1-0.7-0.1-1.1-0.1
				c-1.6,0-3,0.6-3.9,1.6c-0.5,0.6-1,1.8-0.7,3.6c0.4,2,1.8,2.9,3,3.8c1.1,0.8,2.1,1.5,2.5,3c0,0,0-0.1-0.1-0.1
				c-0.4-0.4-1-0.7-1.7-0.7H53c-2,0-3.2,1.6-3.3,3.1l0,0.1c-0.2,2.3,0.6,3.8,2.4,4.4c0.6,0.2,1.2,0.3,1.7,0.3c1.8,0,3.4-1,4.1-2.7
				C58.9,40.8,58.7,37.4,55.5,33.9z M53,42c0-0.1-0.2-0.6-0.2-0.7c0.1,0,0.1,0,0.4,0.3c0.1,0.1,0.9,0,1.2-0.2
				C54.1,41.7,53.4,42,53,42z"/>
			<path fill="#6E748B" d="M74.9,39.2c0-2.9-0.1-6-0.1-7.1c0-3.3-1.5-5.1-4.3-5.3c-0.1,0-0.2,0-0.3,0c-1.3,0-2.5,0.6-3.2,1.6
				c-0.5-0.7-1.2-1.2-2.2-1.2c-0.1,0-0.1,0-0.2,0c-0.6,0-1.2,0.5-1.8,1.1c-0.3-0.8-0.7-1.5-1.6-1.5c-0.7,0-1.4,0.3-1.9,0.8
				c-0.9,0.9-1.1,2.3-1.1,3.2c0.1,1.3,1,1.9,1.8,1.9c0.3,0,0.6-0.1,0.9-0.3c0,0.8,0,1.6,0,2.2c0,0.5,0,1,0,1.3
				c0,0.9-0.1,2.8-0.1,4.6c0,1.5-0.1,3-0.1,3.9c0,0.2,0.1,0.4,0.2,0.6c0.1,0.2,0.4,0.2,0.6,0.2c0.8,0,1.6,0,2,0
				c0.4,0,0.8-0.4,0.8-0.8v-1.6c0,0,0,0,0,0c-0.1-2.3,0.1-8.5,0.1-9.7c0-0.6,0.2-2.1,0.9-2.1c0.5,0,0.8,1.1,0.8,2.7
				c0,0.5,0,0.6,0,0.8c0,0.1,0,0.3,0,0.7c0,0.8,0,1.8,0,2.6c0,0.2,0.1,0.4,0.2,0.6c0.2,0.2,0.4,0.2,0.6,0.2c0.1,0,0.1,0,0.2,0
				c0.1,0,0.3,0,0.4,0c0.4,0,0.6,0,0.7,0c0.4-0.1,0.6-0.4,0.6-0.8c-0.1-1.7-0.1-2.4,0-4l0-0.2c0-1.2,0.6-3,1.8-3.1
				c0.2,0,0.6,0.4,0.6,3.2c0,0.2,0,0.3,0,0.5c0.1,1.4,0.3,8.8,0.3,10.2c0,0.4,0.4,0.8,0.8,0.8c0.3,0,0.6,0,0.9,0c0.3,0,0.6,0,0.8,0
				c0.2,0,0.4-0.1,0.6-0.2c0.2-0.1,0.2-0.4,0.2-0.6C75,43.6,75,41.5,74.9,39.2z"/>
			<path fill="#221714" d="M11.5,26.8c0-0.2-0.1-0.4-0.3-0.4c-0.3,0-0.5,0-0.8,0c-0.1,0-0.3,0-0.5,0c-0.2,0-0.4,0.2-0.4,0.4
				c0,0.5,0,1.1-0.1,1.7c0,0.8-0.1,1.6-0.1,2.2c-1.1,0.1-2.4,0.1-3.6,0.1c-0.3,0-0.6,0-0.9,0c0-0.5,0-1,0-1.6c0-0.8-0.1-1.6,0-2.2
				c0-0.1,0-0.2-0.1-0.3c-0.1-0.1-0.2-0.1-0.3-0.1c-0.3,0-1.2,0-2.6,0c-0.2,0-0.4,0.2-0.4,0.4c0,0.1-0.1,8.1-0.1,9.8
				c0,1.7-0.2,7.8-0.2,7.9c0,0.2,0.2,0.4,0.4,0.4c0.2,0,0.5,0,0.9,0c0.4,0,0.8,0,1.2,0c0.3,0,0.6,0,0.8,0c0.2,0,0.4-0.2,0.4-0.4
				c0-1.4,0-3.6,0-5.8c0-1.9,0-3.6,0-4.8c0.6,0,1.3,0,1.9,0c0.9,0,1.9,0,2.8-0.1c0,0.9,0,2.7,0,4.5c0,1.6,0,3.3,0,3.6
				c-0.1,1-0.1,2,0,2.9c0,0.2,0.2,0.4,0.4,0.4c0,0,0,0,0,0l1.2,0c0.2,0,0.4-0.2,0.4-0.4c0-0.7,0-2.2,0-3.5c0-1.1,0-2.1,0-2.6
				c0-1.4,0-2.6,0-3.7C11.5,32.3,11.5,30,11.5,26.8z M2.7,27.9c0,0,0-0.1,0-0.1c0,0,0,0,0,0c0.2,0.1,0.4,0.2,0.5,0.4
				C3.1,28.1,2.9,28,2.7,27.9z"/>
			<path fill="#221714" d="M18,39.2c0-1-0.1-2-0.1-2.9c-0.1-1.9-0.1-3.8-0.1-5.8c0-0.1,0-0.2-0.1-0.3c-0.1-0.1-0.2-0.1-0.3-0.1h-0.2
				c0.2-0.1,0.3-0.3,0.5-0.4c0.4-0.4,0.6-1,0.5-1.5c-0.2-1.7-1.6-1.7-2.5-1.7c-1.2,0-1.9,0.7-1.9,1.8c0,0.8,0.5,1.5,1.2,1.9h-0.1
				c-0.2,0-0.4,0.2-0.4,0.4c0,1,0,1.9-0.1,2.7c-0.1,1.1-0.1,2.2,0,3.3c0,0.7,0.1,3.1,0.1,5.3c0,1.1,0,2.2,0.1,2.9
				c0,0.2,0.2,0.4,0.4,0.4c0.3,0,2.3,0,2.8-0.1c0.2,0,0.4-0.2,0.3-0.4C18,43.5,18,41.8,18,40.5C18,40,18,39.6,18,39.2z M15.6,41.1
				c0.4,0,0.9,0.1,1.2,0c0,0.2,0,0.3,0,0.5c0,0.5,0,1,0,1.5c-0.4,0-0.7,0.1-1,0.1c-0.1,0-0.1,0-0.2,0c0-0.1,0-0.2,0-0.3
				C15.6,42.4,15.6,41.6,15.6,41.1z M15.5,36.9c0,0,0-0.1,0-0.1c0.4,0,0.8,0,1.2,0c0,0,0.1,0,0.1,0v1.4h-1.2
				C15.6,37.8,15.6,37.4,15.5,36.9z M16.4,31.6c-0.2,0-0.4,0-0.5,0c-0.1,0-0.2,0-0.3,0c0,0,0-0.1,0-0.2c0.3,0,0.6,0.1,0.9,0.1
				c0,0,0,0.1,0,0.1C16.5,31.6,16.5,31.6,16.4,31.6z M16.7,33.6v1h-1.2c0-0.3,0-0.7,0-1C15.9,33.6,16.4,33.6,16.7,33.6z"/>
			<path fill="#221714" d="M31.3,39c0-0.2-0.2-0.3-0.4-0.3c-0.2,0-0.5,0-0.8,0c-0.4,0-0.8,0-1.1,0c-0.1,0-0.2,0.1-0.3,0.2
				c-0.1,0.1-0.1,0.2,0,0.3c0.1,0.4,0.1,1.3,0,1.9c-0.1,0.3-0.2,0.4-0.2,0.4c0,0-0.2-0.1-0.3-0.4c-0.4-0.9-0.6-2-0.9-3.1
				c-0.2-1.1-0.4-1.9-0.5-2.4c1.3-0.6,2.3-1.2,2.7-1.7c0.8-1,1.1-2.1,1-3.3c-0.3-2.7-2.5-4-6.7-4c-0.4,0-0.8,0-1.3,0
				c-0.5,0-0.9,0.1-1.4,0.2c-0.1,0-0.2,0-0.4,0.1c-0.2,0-0.3,0.2-0.3,0.4c0,0.6,0.1,1.1,0.1,1.7c0,0.5,0.1,1,0.1,1.4
				c0.1,3.6,0.1,4.2,0.1,7.7l0,1.6c0,0.3,0,0.6,0,0.9c0,1.1,0,2.6,0,4.1c0,0.2,0.2,0.4,0.4,0.4c0.2,0,0.4,0,0.7,0c0.3,0,0.6,0,0.8,0
				c0.3,0,0.6,0,0.8,0c0.1,0,0.2,0,0.3-0.1c0.1-0.1,0.1-0.2,0.1-0.3c-0.1-2-0.2-5.9-0.2-8.2c0.2,0,0.5-0.1,0.8-0.2
				c0,0.1,0.1,0.2,0.1,0.3c0.1,0.5,0.2,1,0.3,1.5c0.1,0.5,0.2,1,0.3,1.5c0.5,2.3,1.4,5.2,2.7,5.2l0,0c0.7,0,1.7-0.7,2.5-1.6
				C30.9,42.5,31.8,41,31.3,39z M26.7,31.6c0.3-0.2,0.6-0.6,0.6-1c0-0.1,0-0.1,0-0.2c0.2,0.2,0.3,0.5,0.3,0.9c0,0.6-0.2,1.1-0.7,1.5
				c0.1-0.2,0.1-0.4,0.1-0.6C26.9,31.9,26.8,31.7,26.7,31.6z M26.4,29.8c-0.3,0-0.6,0.1-0.8,0.3c-0.1-0.4-0.5-0.6-0.8-0.8
				c0.7,0,1.4,0.2,1.9,0.5C26.6,29.8,26.5,29.8,26.4,29.8z M23.6,30.2c0,0.4,0.2,0.7,0.5,0.9c-0.2,0.2-0.4,0.4-0.6,0.6
				c0-0.9,0-1.7-0.1-2.4c0.2,0,0.5,0,0.7,0C23.8,29.5,23.6,29.9,23.6,30.2z M24.1,33.7c-0.1,0-0.3,0-0.5,0.1c0-0.3,0-0.5,0-0.8
				c0.1,0,0.1,0.1,0.2,0.1c0.1,0,0.2,0.1,0.4,0.1h0.1c0.2,0,0.4-0.1,0.6-0.2c0,0.2,0.1,0.3,0.2,0.4c0.1,0.1,0.1,0.1,0.2,0.2
				c-0.3,0.1-0.6,0.1-1,0.2L24.1,33.7z"/>
			<path fill="#221714" d="M47.6,39.2c0-1-0.1-2-0.1-2.9c-0.1-1.9-0.1-3.8-0.1-5.8c0-0.1,0-0.2-0.1-0.3c-0.1-0.1-0.2-0.1-0.3-0.1
				h-0.2c0.2-0.1,0.3-0.3,0.5-0.4c0.4-0.4,0.6-1,0.5-1.5c-0.2-1.7-1.6-1.7-2.5-1.7c-1.1,0-1.9,0.7-1.9,1.8c0,0.8,0.5,1.5,1.2,1.9
				h-0.1c-0.2,0-0.4,0.2-0.4,0.4c0,1,0,1.9-0.1,2.7c0,1.1-0.1,2.2,0,3.3c0,0.7,0.1,3.1,0.1,5.3c0,1.1,0,2.2,0.1,2.9
				c0,0.2,0.2,0.4,0.4,0.4c0.3,0,2.3,0,2.8-0.1c0.2,0,0.4-0.2,0.3-0.4c-0.1-1.1-0.1-2.9-0.1-4.1C47.7,40,47.7,39.6,47.6,39.2z
				 M45.3,41.1c0.4,0,0.9,0.1,1.2,0c0,0.2,0,0.3,0,0.5c0,0.5,0,1,0,1.5c-0.4,0-0.7,0.1-1,0.1c-0.1,0-0.1,0-0.2,0c0-0.1,0-0.2,0-0.3
				C45.3,42.4,45.2,41.6,45.3,41.1z M45.2,36.9c0,0,0-0.1,0-0.1c0.4,0,0.8,0,1.2,0c0,0,0.1,0,0.1,0v1.4h-1.2
				C45.3,37.8,45.2,37.4,45.2,36.9z M46.1,31.6c-0.2,0-0.4,0-0.5,0c-0.1,0-0.2,0-0.3,0c0,0,0-0.1,0-0.2c0.3,0,0.6,0.1,0.9,0.1
				c0,0,0,0.1,0,0.1C46.2,31.6,46.2,31.6,46.1,31.6z M46.4,33.6v1h-1.2c0-0.3,0-0.7,0-1C45.6,33.6,46,33.6,46.4,33.6z"/>
			<path fill="#221714" d="M55.2,34.1c-0.3-0.3-0.6-0.5-1-0.8c-0.8-0.6-1.7-1.3-1.7-2.1c0-0.5,0.1-0.9,0.3-1.2
				c0.2-0.2,0.5-0.3,0.9-0.3c0.2,0,0.3,0,0.5,0c0.8,0.2,0.8,0.6,0.8,1.1c0,0.1,0,0.2,0,0.3c0,0.2,0.2,0.3,0.4,0.3l0.3,0
				c0.1,0,0.3,0,0.4,0c0.6,0,0.9,0,1-0.1c0.2,0,0.3-0.2,0.3-0.4c0-3-1.4-3.8-2.6-4c-0.3-0.1-0.7-0.1-1-0.1c-1.5,0-2.8,0.5-3.5,1.4
				c-0.7,0.8-0.9,1.9-0.6,3.2c0.4,1.8,1.6,2.7,2.8,3.6c1.2,0.9,2.4,1.7,2.7,3.5c0.2,1-0.1,2.2-0.7,2.9c-0.5,0.5-1,0.8-1.7,0.7
				c-0.3,0-0.4-0.9-0.4-1.5c0.2,0.3,0.4,0.5,0.8,0.5c0.4,0,1.4-0.3,1.6-1.3c0.1-0.6-0.1-1-0.4-1.4c-0.3-0.4-0.8-0.6-1.4-0.6h0
				c-1.8,0-2.8,1.4-2.9,2.7l0,0.1c-0.1,0.8-0.3,3.2,2.1,4c0.5,0.2,1.1,0.3,1.6,0.3c1.7,0,3.1-0.9,3.8-2.5
				C58.5,40.6,58.3,37.4,55.2,34.1z M54.6,43.3c0.2,0,0.3,0,0.4,0.1c-0.2,0.1-0.5,0.2-1,0.2c-0.1,0-0.1,0-0.2,0
				C54.1,43.4,54.3,43.3,54.6,43.3z M56.7,41.2c0-0.1,0-0.3,0-0.3c0-0.3,0-0.5,0.1-0.8C56.8,40.5,56.8,40.9,56.7,41.2z M56.1,42.8
				C56.1,42.9,56.1,42.9,56.1,42.8c-0.2,0.1-0.4-0.1-0.4-0.3c0-0.1,0-0.1,0-0.2C55.9,42.4,56.1,42.7,56.1,42.8z M52.7,39.3
				C52.7,39.3,52.7,39.3,52.7,39.3c0.1,0,0.1,0,0.1,0C52.7,39.3,52.7,39.3,52.7,39.3C52.6,39.3,52.7,39.3,52.7,39.3z"/>
			<path fill="#221714" d="M74.5,39.1c0-2.9-0.1-6-0.1-7.1c0-3.1-1.3-4.7-3.9-4.9c-0.1,0-0.2,0-0.3,0c-1.2,0-2.4,0.6-3,1.6
				c-0.1,0.1-0.1,0.3-0.2,0.5c-0.5-0.9-1.1-1.6-2.2-1.6c0,0-0.1,0-0.1,0c-0.6,0-1.4,0.7-2,1.7c-0.2-1-0.5-2.1-1.4-2.1
				c-0.6,0-1.2,0.2-1.6,0.7c-0.7,0.8-1,2-1,2.9c0.1,1.1,0.7,1.5,1.4,1.5c0.9,0,1.2-1.1,1.2-1.8c0-0.4-0.2-0.7-0.4-0.9
				c0.3,0,0.4,0.2,0.4,0.4c0.1,1.5,0.1,3.3,0,4.6c0,0.5,0,1,0,1.3c0,0.9-0.1,2.8-0.1,4.6c0,1.6-0.1,3-0.1,3.9c0,0.1,0,0.2,0.1,0.3
				c0.1,0.1,0.2,0.1,0.3,0.1c0.7,0,1.6,0,2,0c0.2,0,0.4-0.2,0.4-0.4v-1.6c-0.1-2.3,0.1-8.5,0.1-9.7c0-1.1,0.3-2.4,1.3-2.4
				c1.1,0,1.2,2.3,1.2,3.1c0,0.6,0,0.6,0,0.8c0,0.1,0,0.3,0,0.7c0,0.8,0,1.8,0,2.6c0,0.1,0,0.2,0.1,0.3c0.1,0.1,0.2,0.1,0.3,0.1
				c0.1,0,0.1,0,0.2,0c0.1,0,0.2,0,0.4,0c0.3,0,0.5,0,0.6,0c0.2,0,0.3-0.2,0.3-0.4c-0.1-1.7,0-2.4,0-4l0-0.2c0-1.4,0.7-3.4,2.2-3.5
				h0c1,0,1,2.4,1,3.6c0,0.2,0,0.3,0,0.4c0.1,1.4,0.3,8.8,0.3,10.3c0,0.2,0.2,0.4,0.4,0.4c0.3,0,0.6,0,0.9,0c0.3,0,0.6,0,0.8,0
				c0.1,0,0.2,0,0.3-0.1c0.1-0.1,0.1-0.2,0.1-0.3C74.6,43.5,74.6,41.4,74.5,39.1z M73.6,43.7c-0.1,0-0.2,0-0.2,0c0,0-0.1,0-0.1,0
				c0-0.4,0-0.9,0-1.3c0-0.2,0-0.4,0-0.6c0.1,0,0.3,0,0.4,0c0,0.2,0,0.5,0,0.8C73.6,42.9,73.6,43.3,73.6,43.7z M62.9,43.7
				C62.9,43.7,62.9,43.7,62.9,43.7c-0.2,0-0.4,0.1-0.6,0.1c0-0.1,0-0.3,0-0.5c0-0.7,0-1.3,0-1.7c0.2,0,0.3,0,0.5,0c0,0.3,0,0.6,0,1
				C62.9,42.9,62.9,43.4,62.9,43.7z"/>
			<path fill="#FFFFFF" d="M11.1,38.7c0,1,0,4.7,0,6.1l-1.2,0c0-1,0-2,0-2.8c0-0.7-0.1-7.6,0-8.5c-1.8,0.1-3.7,0.1-5.5,0.1
				c0,2.4,0.1,8.3,0.1,11c-0.7,0-2.2,0.1-2.9,0c0,0,0.1-6.2,0.2-7.9C1.8,35,1.9,27,1.9,27c0.4,0,2.1,0,2.6,0c-0.1,1.2,0.1,3.1,0,4.2
				c1.4,0,3.9,0,5.4-0.1c0-1.2,0.1-3.1,0.1-4.3c0.7,0,0.7,0,1.2,0C11.1,31.3,11.1,34.2,11.1,38.7z M2.8,37.2
				c-0.2-0.1-0.6-0.4-0.6-0.8c0-1,1.3-1.5,1.3-2.5c0-1.2-1.1-1.5-1.1-2.6c0-1,1.5-1.1,1.5-2.2c0-0.8-0.6-1.9-1.6-1.9
				c0,0.2,0,0.6-0.1,0.9c0.5,0.1,1.2,0.5,1.2,1.1c0,0.5-0.5,0.8-0.8,1.2c-0.3,0.3-0.6,1-0.6,1.5c0,1.1,0.9,1.6,0.9,2.7
				c0,0.7-1,1-1,1.7c0,1.3,1.3,1.6,1.3,2.7c0,0.8-1.3,1-1.3,2.1c0,0.7,1.4,0.9,1.4,1.4c0,0.4-0.9,1-1.3,1c0.1,0.3,0.3,0.4,0.3,0.7
				c0.6-0.1,1.5-0.6,1.5-1.3c0-0.9-1.4-1-1.4-1.8c0-1.1,1.3-1.2,1.3-2.3C3.8,38.1,3.3,37.6,2.8,37.2z"/>
			<path fill="#FFFFFF" d="M16.1,30c-0.9,0-1.9-0.8-1.9-1.8c0-0.9,0.5-1.4,1.5-1.4c0.9,0,1.9,0,2.1,1.4C17.9,29.1,17,30,16.1,30z
				 M14.9,44.7c0-2.3-0.1-7.1-0.2-8.2c-0.1-1.9,0.1-3.7,0.1-6c0.6,0,2.5,0,2.5,0c0,3,0.1,5.8,0.2,8.7c0,1.1,0,3.8,0.1,5.4
				C17.2,44.7,15.2,44.7,14.9,44.7z M16,27.9c0-0.3-0.2-0.5-0.4-0.6c-0.2,0.8-0.3,0.7-0.9,1c0.7,0.1,0.7,0.3,0.7,0.9
				c0.1-0.2,0.2-0.3,0.4-0.5c0.3,0.2,0.5,0.5,0.8,0.6c0-0.7,0-1.2,0.4-1.8C16.6,27.6,16.6,27.7,16,27.9z M17.1,35v-1.9
				c-0.4,0.1-1.4,0.1-2,0c0,0.4,0,1.8,0,1.9H17.1z M17.2,38.6v-2.2c-0.5,0-1.2,0.1-2.1,0c0,0.3,0.2,1.7,0,2.2H17.2z M17.2,40.7
				c-0.3,0.2-1.5,0-2,0c0,0.6,0,2.4,0,3c0.8-0.1,1.2-0.2,2-0.2C17.1,42.7,17.2,41.3,17.2,40.7z M16.9,31c-0.6,0.1-1.4,0-1.7-0.1
				c0,0.4,0,0.6,0,1c0.5-0.1,1.1,0,1.8,0C16.9,31.5,16.9,31.3,16.9,31z"/>
			<path fill="#FFFFFF" d="M23.2,36.1c0,2.3,0.1,6.5,0.2,8.6c-0.8,0-1.5,0.1-2.3,0c0-1.9,0-3.8,0-5c0-4.9,0-5.2-0.1-9.3
				c0-0.7-0.1-1.9-0.1-3.1c0.7-0.1,1-0.2,1.7-0.3c3.9-0.2,7.1,0.4,7.5,3.6c0.1,1.1-0.3,2.1-0.9,3c-0.4,0.5-1.2,1.1-2.8,1.7
				c0.1,0.6,0.3,1.7,0.5,2.8c0.2,1.1,0.5,2.3,0.9,3.2c0.5,1,1.1,0.7,1.3,0c0.2-0.7,0.2-1.6,0-2.1c0.6-0.1,1.3,0.1,1.8,0
				c0.7,3.1-2.1,5.4-3.1,5.3c-1.2,0-2.1-3.8-2.3-4.9c-0.2-1-0.4-2-0.7-3.1c0-0.3-0.1-0.5-0.2-0.7C24.3,35.9,23.4,36.1,23.2,36.1z
				 M23.2,34.2c0.4,0,0.9-0.1,1-0.1c2.3-0.3,3.7-1.2,3.7-2.9c-0.1-2.2-2.8-2.4-4.8-2.2C23.2,30.4,23.2,32.7,23.2,34.2z M25.4,31.4
				c0.2,0.3,1.1,0.2,1.1,0.9c0,0.4-0.4,1-0.9,1c-0.7,0-0.4-1.2-0.5-1.9c0,0.4-0.2,1.4-1,1.4c-0.1,0-0.4,0-0.4-0.2
				c0-0.7,0.7-1.3,1.3-1.4C24.8,31,24,30.8,24,30.2c0-0.2,0.1-0.5,0.4-0.5c0.3,0,0.8,0.3,0.8,0.7c0,0.3-0.1,0.7-0.1,0.7
				c0.3-0.2,0.7-0.9,1.2-0.9c0.3,0,0.4,0,0.4,0.3C26.8,31.2,26.1,31.6,25.4,31.4z"/>
			<path fill="#FFFFFF" d="M45.8,30c-0.9,0-1.9-0.8-1.9-1.8c0-0.9,0.5-1.4,1.5-1.4c0.9,0,1.9,0,2.1,1.4C47.5,29.1,46.7,30,45.8,30z
				 M44.6,44.7c0-2.3-0.1-7.1-0.2-8.2c-0.1-1.9,0.1-3.7,0.1-6c0.6,0,2.5,0,2.5,0c0,3,0.1,5.8,0.2,8.7c0,1.1,0,3.8,0.1,5.4
				C46.9,44.7,44.9,44.7,44.6,44.7z M45.7,27.9c-0.1-0.3-0.2-0.5-0.4-0.6c-0.2,0.8-0.3,0.7-0.9,1c0.7,0.1,0.7,0.3,0.7,0.9
				c0.1-0.2,0.2-0.3,0.4-0.5c0.4,0.2,0.5,0.5,0.8,0.6c0-0.7,0-1.2,0.4-1.8C46.3,27.6,46.2,27.7,45.7,27.9z M46.8,35v-1.9
				c-0.4,0.1-1.4,0.1-2,0c0,0.4,0,1.8,0,1.9H46.8z M46.9,38.6v-2.2c-0.5,0-1.2,0.1-2.1,0c0,0.3,0.2,1.7,0,2.2H46.9z M46.8,40.7
				c-0.3,0.2-1.5,0-2,0c0,0.6,0,2.4,0,3c0.8-0.1,1.2-0.2,2-0.2C46.8,42.7,46.9,41.3,46.8,40.7z M46.6,31c-0.6,0.1-1.4,0-1.7-0.1
				c0,0.4,0,0.6,0,1c0.5-0.1,1.1,0,1.8,0C46.6,31.5,46.6,31.3,46.6,31z"/>
			<path fill="#FFFFFF" d="M55.5,31c-0.1-0.3,0.2-1.4-1.1-1.7c-0.9-0.2-2.3-0.1-2.2,1.8c0,1.4,2,2.4,2.8,3.2
				c5.2,5.6,2.3,11.6-2.5,10.1c-2.3-0.7-1.9-3.1-1.8-3.7c0.1-1.1,1-2.4,2.5-2.3c0.9,0,1.4,0.6,1.3,1.5c-0.1,0.8-0.9,1-1.2,1
				c-0.5,0-0.8-1.1-0.4-1.1c0.3,0,0.4,0.5,0.1,0.5c0.1,0.1,0.6,0.2,0.7,0c0.1-0.6-0.1-1.3-0.9-1.2c-0.7,0-0.6,1.1-0.6,1.5
				c0,0.8-0.1,2.1,0.7,2.2c2.1,0.3,3.2-2.2,2.9-4.1c-0.7-3.9-4.7-3.6-5.5-7.1c-0.7-3.4,2.3-4.5,4.7-4.1c1.9,0.3,2.3,2,2.3,3.6
				C56.8,31,55.9,31,55.5,31z M54.6,43c-0.8,0-0.8,0.6-1.9,0.5c0.5,0.2,0.9,0.4,1.6,0.4c0.8,0,1.1-0.2,1.2-0.6
				C55.3,43.1,54.9,43,54.6,43z M55.4,42.6c0,0.4,0.3,0.7,0.7,0.7c0.2,0,0.3-0.3,0.3-0.5C56.5,42.2,55.4,41.6,55.4,42.6z M56.3,40.8
				c0,0.3,0.1,0.8,0.2,1c1.4-1,0.2-2.5,0.1-3C56.6,39.6,56.3,40.2,56.3,40.8z"/>
			<path fill="#FFFFFF" d="M62.6,30.7c0.3-1.6,1.5-2.8,2.1-2.8c1.1-0.1,1.8,0.8,2.3,2.2c0-0.2,0.4-1.1,0.6-1.3
				c0.5-0.8,1.6-1.4,2.9-1.4c2.3,0.2,3.5,1.5,3.5,4.5c0,1.9,0.1,10.4,0.2,12.3c-0.4,0-1.2,0-1.7,0c0-1.4-0.3-8.9-0.4-10.3
				c0-1.4,0-4.5-1.5-4.4c-1.8,0.1-2.5,2.2-2.6,3.8c-0.1,1.8-0.1,2.5,0,4.2c-0.2,0-0.9,0-1.2,0c0-0.8,0-1.8,0-2.6c0-0.9,0-0.6,0-1.5
				c0-1-0.1-3.5-1.6-3.5c-1.3,0-1.6,1.5-1.7,2.8c-0.1,2.1-0.2,7.6-0.1,9.8c0,0.2,0,1.1,0,1.6c-0.4,0-1.3,0-2,0c0-2,0.2-6.8,0.2-8.5
				c0-1.3,0.2-3.8,0-5.9c0-0.5-0.4-0.8-0.9-0.8c-0.7,0-1.3,0.9-1.3,1.5c0,0.1,0,0.6,0.3,0.6c0.3,0,0.7-0.4,0.7-0.7
				c0-0.2,0-0.4-0.3-0.4c-0.1,0-0.1,0.1-0.1,0.2c0.2,0.1,0.4,0.5,0,0.5c-0.5,0-0.4-1,0.1-1c0.3,0,0.5,0.2,0.5,0.6
				c0,0.6-0.2,1.4-0.8,1.4c-0.5,0-1-0.4-1-1.2c-0.1-1.3,0.6-3.2,2.2-3.2C62.4,27.5,62.4,29.9,62.6,30.7z M61.9,44.1
				c0.7,0.1,1,0,1.5-0.1c0-0.6-0.1-2.4-0.1-2.9c-0.3,0-1,0.1-1.3,0C61.9,41.4,61.9,43.8,61.9,44.1z M74,44.1c0-0.7,0-2.2,0-2.8
				c-0.3,0-0.8,0.1-1.2,0.1c0,0.6,0.1,2.1,0.1,2.7C73.3,44.1,73.7,44.1,74,44.1z"/>
			<path fill-rule="evenodd" clip-rule="evenodd" fill="#221714" d="M37,45.8c-0.7,0-1.4,0-2.1-0.2c-0.5-0.1-1.4-0.2-1.5-0.7
				c-0.2-0.6,0.5-0.8,0.9-0.9c0.7-0.1,1.5-0.2,1.9-0.7c0.8-0.9,0.6-2.5,0.5-3.6c-0.1-1.3-0.6-2.3-1.4-3.3c-0.8-1.1-1.9-2.2-2.4-3.5
				c-0.5-1.3-0.7-2.7-0.2-4c0.1-0.4,0.2-0.9,0.5-1.2c0.3-0.3,1.1-0.4,1.5-0.4c1.4-0.2,3-0.2,4.4-0.1c0.6,0.1,1.4,0.1,1.9,0.4
				c0.3,0.2,0.5,0.8,0.6,1.1c0.4,1,0.4,2.2,0.1,3.3c-0.3,1.2-1,2.3-1.7,3.4c-0.7,0.9-1.4,1.6-1.8,2.6c-0.1,0.5-0.2,1-0.3,1.5
				c-0.1,0.6,0,1.2,0,1.8c0,0.5,0,1.2,0.3,1.7c0.2,0.4,0.7,0.6,1.1,0.8c0.5,0.2,1.3,0.2,1.8,0.5c0.6,0.4,0.1,0.8-0.4,1
				C39.6,45.9,38.1,45.8,37,45.8"/>
			<path fill="#6E748B" d="M41.5,28c-0.7-0.8-2.1-1.2-4.3-1.2c-0.1,0-0.3,0-0.4,0c-3,0.1-4.5,1-4.6,2.8c0,0.6,0.2,1.2,0.7,1.6
				c0.6,0.6,1.8,1.3,4.3,1.3c3.9,0,4.9-1.6,4.9-2.5c0,0,0-0.1,0-0.2C42,29.5,42.1,28.7,41.5,28z M37.5,29.5c0,0.1,0,0.2,0,0.3
				c0,0.1,0,0.2-0.1,0.3c0,0,0,0,0,0c0,0-0.1,0.1-0.3,0.1c-0.1,0-0.2,0-0.2-0.3c0,0,0,0,0-0.1c0-0.2,0.1-0.4,0.2-0.5
				c0,0,0.1,0,0.1,0C37.4,29.4,37.5,29.5,37.5,29.5z"/>
			<g>
				<path fill="#221714" d="M41.3,28.1c-0.7-0.7-2-1.1-4.1-1.1c-0.1,0-0.3,0-0.4,0c-4.3,0.1-4.4,2-4.4,2.6c0,0.5,0.2,1.1,0.6,1.5
					c0.6,0.6,1.7,1.2,4.1,1.2c3.7,0,4.7-1.4,4.7-2.3c0-0.1,0-0.1,0-0.2C41.8,29.5,41.9,28.8,41.3,28.1z M33.5,30
					c-0.1-0.4,0.2-1.2,0.7-1.6c0.2-0.1,0.4-0.3,0.8-0.4c-0.3,0.2-0.5,0.4-0.7,0.5c-0.5,0.6-0.5,1.3-0.5,1.4c0,0.4,0.4,1,1.2,1.4
					C34,31.1,33.6,30.4,33.5,30z M37.4,28v0.2c1.1,0,1.7,0.9,1.8,1.5c0,0.2-0.1,0.5-0.3,0.8c-0.4,0.4-1.1,0.8-1.7,0.8
					c-1.5,0-2-1.2-2-1.2c-0.1-0.2-0.1-0.6,0.2-1c0.2-0.3,0.8-0.9,2.1-0.9L37.4,28L37.4,28z M40.5,30.1c0-0.2,0-1-0.6-1.7
					c-0.2-0.2-0.3-0.3-0.6-0.5c0.4,0.1,0.7,0.3,0.9,0.5c0.3,0.3,0.4,0.6,0.4,0.9c0,0.4,0.1,1-0.3,1.5c-0.2,0.3-0.5,0.5-0.9,0.6
					C40.1,30.9,40.5,30.3,40.5,30.1z"/>
				<path fill="#221714" d="M35.9,28.9c-0.3,0.3-0.4,0.7-0.4,0.9c0,0.7,0.5,1.4,1.6,1.4l0.1,0c0.7,0,1.1-0.2,1.4-0.5
					c0.4-0.5,0.3-1,0.2-1.2c0-0.3-0.3-0.8-0.9-0.9c-0.3-0.1-0.5-0.1-0.8-0.1C36.5,28.4,36.1,28.7,35.9,28.9z M36.7,29.9
					c0-0.1,0.1-0.6,0.3-0.7c0.1,0,0.1,0,0.2,0c0.3,0,0.5,0.2,0.5,0.3c0,0.1,0,0.3,0,0.4c0,0.1,0,0.2-0.1,0.3c0,0,0,0.3-0.5,0.3
					C36.8,30.5,36.8,30.2,36.7,29.9C36.7,29.9,36.7,29.9,36.7,29.9z"/>
			</g>
			<path fill="#FFFFFF" d="M37.1,32.2c-3.2,0-4.6-1.2-4.5-2.5c0-0.8,0.2-2.3,4.2-2.4c5.5-0.1,4.8,2.2,4.8,2.8
				C41.6,30.8,40.7,32.2,37.1,32.2z M40.4,28.2c-0.3-0.4-1.2-0.7-2.5-0.7c-1.7,0-3.2,0.2-3.7,0.7c-0.6,0.4-0.9,1.3-0.8,1.8
				c0.1,0.7,1.1,2,4.1,1.9c3.7-0.2,3.5-1.9,3.4-2.7C40.8,28.9,40.6,28.6,40.4,28.2z M37.3,31.7c-2.2,0-3.1-1.2-3.2-1.7
				c-0.1-0.7,0.4-2.4,3.9-2.2c2.1,0.1,2.3,2,2.3,2.3C40.2,30.3,39.4,31.7,37.3,31.7z M37.4,28c-2.2,0-2.7,1.5-2.4,2.2
				c0.1,0.3,0.8,1.3,2.2,1.3c1.1,0,2.3-0.9,2.2-1.7C39.4,29,38.6,28,37.4,28z M37.1,31c-1.1,0-1.4-0.7-1.4-1.2
				c0-0.4,0.5-1.5,2.2-1.1c0.5,0.2,0.7,0.6,0.7,0.8C38.6,29.7,38.9,31,37.1,31z M37.2,30.7c0.6,0,0.7-0.4,0.7-0.5
				c0-0.3,0.1-0.5,0.1-0.8c0-0.2-0.3-0.6-1-0.4c-0.4,0.1-0.5,0.8-0.5,0.9C36.5,30,36.5,30.7,37.2,30.7z"/>
		</g>
		<g>
			
				<path fill-rule="evenodd" clip-rule="evenodd" fill="#221714" stroke="#221714" stroke-width="0.7969" stroke-miterlimit="10" d="
				M30.1,3C33.3,2,35,1.7,36.4,1.5C38.1,1.3,39.3,1.3,41,2c1.7,0.7,3.5,1.3,4.3,1.8c0.6,0.3,1.1,1.2,0.9,2.5c-0.2,1.3-1.4,2-2.1,2.1
				c-1.1,0.3-1.9-0.1-2.3-0.3c-0.3-0.1-1.4-0.6-1.9-0.7c-0.3-0.1-0.7-0.1-1.2-0.2c-0.1,0-0.1,0-0.1,0.1c0,1.5,0,1.7-0.2,2.5
				c-0.2,0.6-0.9,1.2-1,1.2c-0.1,0.2-0.3,0.5,0,0.6c0.3,0.1,1.4,0.6,1.6,0.7c0.1,0.1,0.4,0.5,0,1c-0.5,0.4-1.1,0.7-1.5,0.8
				c-0.1,0-0.2,0.1,0,0.1c0.2,0,1.2,0.2,1.4,0.4c0.3,0.2,0.5,0.6,0,1.1c-0.2,0.2-1.4,0.7-1.5,0.8c-0.1,0-0.1,0.1,0,0.1
				c0.2,0.1,1.4,0.4,1.6,0.7c0.2,0.3,0.4,0.8,0.1,1.1c-0.3,0.3-0.7,0.5-1.1,0.7c-0.3,0.1-0.5,0.2-0.7,0.4c-0.1,0.1-0.1,0.2,0,0.3
				c0.1,0.1,0.7,0.3,0.8,0.4c0.1,0.1,0.2,0.2,0.2,0.5c0,0.3-0.1,0.6-0.4,0.8c-0.1,0.1-0.3,0-0.3-0.2c0-0.2,0-0.4,0-0.4
				c0-0.1,0-0.1-0.2-0.2c-0.5-0.2-1.3-0.5-1.5-0.8c-0.2-0.2-0.3-0.6-0.1-0.9c0.2-0.3,0.8-0.8,1.4-1c0.2-0.1,0.3-0.3,0-0.3
				c-0.3-0.1-1.2-0.2-1.5-0.5c-0.3-0.2-0.2-0.8,0-1c0.3-0.2,0.8-0.6,1.5-0.8c0.1-0.1,0.1-0.1,0-0.2c-0.3-0.1-0.8,0-1.4-0.2
				c-0.2-0.1-0.6-0.6-0.2-1c0.3-0.3,0.7-0.5,1-0.7c0.2-0.1,0.5-0.3,0.7-0.4c0.1-0.1,0.1-0.2-0.1-0.3c-0.2,0-1.1-0.2-1.4-0.5
				c-0.1-0.1-0.5-0.4-0.2-0.9c0.1-0.3,0.6-0.8,0.7-1c0.1-0.3,0.3-0.7,0.3-1.6c0-0.9,0-1.3,0-1.4c0-0.1-0.1-0.1-0.1-0.1
				c-0.6,0-1.4,0.2-2.6,0.5c-1.2,0.3-2.6,0.7-2.8,0.7c-0.5,0.1-1.3,0.1-1.7-0.6c-0.4-0.7-0.9-2.3-0.5-3.4C29,3.8,29.3,3.2,30.1,3z"
				/>
			
				<path fill-rule="evenodd" clip-rule="evenodd" fill="#221714" stroke="#221714" stroke-width="0.7969" stroke-miterlimit="10" d="
				M37.3,7.2c0-0.1,0-0.1,0.1-0.1c0.1,0,0.7,0.1,0.8,0.1c0.1,0,0.2,0,0.2,0.1c0,0.1,0,1.6-0.1,1.9c-0.1,0.3-0.2,1-1,1.6
				c-0.1,0.2-0.3,0.3-0.3,0.4c-0.1,0.1,0,0.3,0.1,0.4c0.1,0.1,0.1,0.1,0,0.1c-0.1,0-0.5,0-0.6-0.3c-0.1-0.3,0.1-0.5,0.2-0.8
				c0.2-0.2,0.6-0.9,0.7-0.9c0.1-0.1,0-0.3,0-0.3c-0.1,0-0.2,0-0.2-0.4C37.3,8.6,37.3,7.4,37.3,7.2z"/>
			
				<path fill-rule="evenodd" clip-rule="evenodd" fill="#221714" stroke="#221714" stroke-width="0.7969" stroke-miterlimit="10" d="
				M38.3,12.3C38.2,12.2,38.2,12.2,38.3,12.3c0.1,0,0.5,0.1,0.6,0.2c0,0,0.1,0.2-0.1,0.2c-0.1,0-0.2,0.1-0.3,0.2c-0.1,0,0-0.1,0-0.1
				c0,0,0.1-0.3-0.1-0.4C38.4,12.4,38.3,12.3,38.3,12.3z"/>
			
				<path fill-rule="evenodd" clip-rule="evenodd" fill="#221714" stroke="#221714" stroke-width="0.7969" stroke-miterlimit="10" d="
				M38.6,13.3C38.7,13.3,38.7,13.3,38.6,13.3c-0.1,0.2-0.4,0.4-1.3,0.8c-0.1,0.1-0.2,0.2,0,0.3c0.2,0.1,0.7,0.2,0.9,0.2
				c0.1,0,0.3,0.1,0.4,0.2c0,0,0.2,0.1,0.1,0.3c-0.1,0.2-0.2,0.2-0.2,0.3c0,0,0,0,0,0c0-0.1-0.1-0.5-0.6-0.7c-0.2,0-0.8-0.1-1-0.2
				c0,0,0,0,0,0c-0.3-0.1-0.2-0.3-0.1-0.4c0.1-0.1,0.2-0.2,0.7-0.3C37.9,13.5,38.6,13.3,38.6,13.3z"/>
			
				<path fill-rule="evenodd" clip-rule="evenodd" fill="#221714" stroke="#221714" stroke-width="0.7969" stroke-miterlimit="10" d="
				M38.7,15.4c0.2-0.1,0.3-0.1,0.2,0.1c-0.2,0.3-1.6,0.9-1.7,1c-0.1,0.1-0.2,0.3,0,0.3c0.2,0.1,1.4,0.3,1.6,0.6c0,0,0.2,0.2,0,0.3
				c-0.1,0-0.1,0.1-0.1,0c0-0.1-0.2-0.5-0.6-0.6c-0.4-0.1-0.7-0.1-1-0.2c-0.6-0.2-0.3-0.6,0-0.7C37.7,16,38.5,15.6,38.7,15.4z"/>
			
				<path fill-rule="evenodd" clip-rule="evenodd" fill="#221714" stroke="#221714" stroke-width="0.7969" stroke-miterlimit="10" d="
				M37,19c0.1-0.1,0.9-0.4,1.1-0.5c0.2-0.1,0.7-0.3,0.8-0.3c0.1,0,0.1,0,0.1,0.1c-0.1,0.1-0.3,0.4-0.8,0.6c-0.4,0.2-0.8,0.3-0.9,0.5
				c0,0.1-0.1,0.1-0.1,0c0,0-0.2-0.1-0.2-0.2C36.9,19.1,36.9,19,37,19z"/>
			
				<path fill-rule="evenodd" clip-rule="evenodd" fill="#221714" stroke="#221714" stroke-width="0.7969" stroke-miterlimit="10" d="
				M36.9,19.6c0,0,1.1,0.6,1.2,0.6c0.1,0.1,0.2,0.2,0.2,0.4c0,0.2-0.1,0.5-0.2,0.5c0,0,0,0,0,0c0,0,0-0.3,0-0.3c0-0.1-0.1-0.1,0-0.2
				c0.1,0,0.1-0.2,0-0.3C37.9,20.2,37,19.7,36.9,19.6C36.8,19.6,36.8,19.6,36.9,19.6z"/>
			<path fill-rule="evenodd" clip-rule="evenodd" fill="#FFFFFF" d="M30.1,2.9C33.3,2,35,1.7,36.4,1.5c1.7-0.2,2.9-0.2,4.7,0.4
				c1.7,0.7,3.5,1.3,4.3,1.7c0.6,0.3,1.1,1.2,0.9,2.5c-0.2,1.2-1.4,1.9-2.1,2.1c-1.1,0.2-1.9-0.1-2.3-0.3c-0.3-0.1-1.4-0.6-1.9-0.7
				c-0.3-0.1-0.7-0.1-1.2-0.2c-0.1,0-0.1,0-0.1,0.1c0,1.5,0,1.7-0.2,2.4c-0.2,0.6-0.9,1.1-1,1.2c-0.1,0.2-0.3,0.5,0,0.6
				c0.3,0.1,1.4,0.6,1.6,0.7c0.1,0.1,0.4,0.5,0,1c-0.5,0.4-1.1,0.7-1.5,0.8c-0.1,0-0.2,0.1,0,0.1c0.2,0,1.2,0.2,1.4,0.4
				c0.3,0.2,0.5,0.6,0,1.1c-0.2,0.2-1.4,0.7-1.5,0.8c-0.1,0-0.1,0.1,0,0.1c0.2,0.1,1.4,0.4,1.6,0.7c0.2,0.3,0.4,0.8,0.1,1.1
				c-0.3,0.3-0.7,0.5-1.1,0.7c-0.3,0.1-0.5,0.2-0.7,0.4c-0.1,0.1-0.1,0.2,0,0.3c0.1,0.1,0.7,0.3,0.8,0.4c0.1,0.1,0.2,0.2,0.2,0.5
				c0,0.3-0.1,0.6-0.4,0.8c-0.1,0.1-0.3,0-0.3-0.2c0-0.2,0-0.4,0-0.4c0-0.1,0-0.1-0.2-0.2c-0.5-0.2-1.3-0.5-1.5-0.7
				c-0.2-0.2-0.3-0.6-0.1-0.9c0.2-0.3,0.8-0.8,1.4-1c0.2-0.1,0.3-0.3,0-0.3c-0.3-0.1-1.2-0.2-1.5-0.4c-0.3-0.2-0.2-0.8,0-1
				c0.3-0.2,0.8-0.6,1.5-0.8c0.1-0.1,0.2-0.1,0-0.1c-0.3-0.1-0.8,0-1.4-0.2c-0.2-0.1-0.6-0.6-0.2-1c0.3-0.3,0.7-0.5,1-0.7
				c0.2-0.1,0.5-0.3,0.7-0.4c0.1-0.1,0.1-0.2-0.1-0.3c-0.2,0-1.1-0.2-1.4-0.5c-0.1-0.1-0.5-0.4-0.2-0.9c0.1-0.3,0.6-0.8,0.7-1
				c0.1-0.3,0.3-0.7,0.3-1.6c0-0.9,0-1.3,0-1.4c0-0.1-0.1-0.1-0.1-0.1c-0.6,0-1.4,0.2-2.6,0.5c-1.2,0.3-2.6,0.7-2.8,0.7
				c-0.5,0.1-1.3,0.1-1.7-0.6C29,7,28.6,5.4,28.9,4.3C29,3.8,29.3,3.2,30.1,2.9z"/>
			<path fill-rule="evenodd" clip-rule="evenodd" fill="#221714" d="M32.7,6.3c0.5-0.2,2.2-0.9,4.9-1c0.3,0,2.8-0.1,4.8,0.9
				c0.1,0.1,0.2,0.3,0,0.1c-0.3-0.1-2.1-0.8-4.7-0.8c-1.2,0-2.7,0.1-4.9,0.9C32.5,6.5,32.5,6.3,32.7,6.3z"/>
			<path fill-rule="evenodd" clip-rule="evenodd" fill="#221714" d="M33.3,6.7c0.4-0.1,1.6-0.8,4.4-0.9c0.8,0,2.6,0.2,4,0.7
				c0.2,0,0.2,0.2-0.1,0.1C41.3,6.5,39.3,6,37.7,6c-1.4,0-3.5,0.4-4.4,0.8C33.2,6.9,33.1,6.8,33.3,6.7z"/>
			<path fill-rule="evenodd" clip-rule="evenodd" fill="#221714" d="M34.2,6.7c1.2-0.4,3.5-0.9,6.7,0.1C41,6.8,41,7,40.8,7
				c-0.2-0.1-3.4-1-6.6-0.1C34.1,6.9,34,6.8,34.2,6.7z"/>
			<path fill-rule="evenodd" clip-rule="evenodd" fill="#221714" d="M37.4,7.3c0-0.1,0-0.1,0.1-0.1c0.1,0,0.7,0,0.8,0.1
				c0.1,0,0.2,0,0.2,0.1c0,0.1,0,1.4-0.1,1.6c-0.1,0.3-0.2,0.9-1,1.6c-0.1,0.2-0.3,0.3-0.3,0.4c-0.1,0.1,0,0.3,0.1,0.4
				c0.1,0.1,0.1,0.1,0,0.1c-0.1,0-0.5,0-0.6-0.3c-0.1-0.3,0.1-0.5,0.2-0.8c0.2-0.2,0.6-0.8,0.7-0.9c0.1-0.1,0-0.3,0-0.3
				c-0.1,0-0.2,0-0.2-0.4C37.3,8.4,37.4,7.5,37.4,7.3z"/>
			<path fill-rule="evenodd" clip-rule="evenodd" fill="#221714" d="M37.2,12C37.2,12,37.2,12,37.2,12c0.1,0,0.5,0,0.6,0.2
				c0,0.1,0.1,0.2-0.1,0.2c-0.1,0-0.2,0.1-0.3,0.2c-0.1,0,0-0.1,0-0.1c0,0,0.1-0.3-0.1-0.4C37.4,12.2,37.3,12.1,37.2,12z"/>
			<path fill-rule="evenodd" clip-rule="evenodd" fill="#221714" d="M38.5,13C38.6,13,38.6,13,38.5,13c-0.1,0.2-0.4,0.4-1.3,0.8
				c-0.1,0-0.1,0.2,0,0.3c0.2,0.1,0.7,0.2,0.9,0.2c0.1,0,0.3,0.1,0.4,0.2c0,0,0.2,0.1,0.1,0.3C38.4,15,38.3,15,38.3,15
				c0,0,0,0-0.1,0c0-0.1-0.1-0.5-0.6-0.7c-0.3,0-0.8-0.1-1-0.2c0,0,0,0,0,0c-0.3-0.1-0.2-0.3-0.1-0.4c0.1-0.1,0.2-0.2,0.7-0.3
				C37.8,13.3,38.5,13.1,38.5,13z"/>
			<path fill-rule="evenodd" clip-rule="evenodd" fill="#221714" d="M38.4,15.2c0.2-0.1,0.3-0.1,0.2,0.1c-0.2,0.3-1.6,0.9-1.7,1
				c-0.1,0.1-0.2,0.3,0,0.3c0.2,0.1,1.4,0.3,1.6,0.6c0,0.1,0.2,0.2,0,0.3c-0.1,0-0.1,0.1-0.1,0c0-0.1-0.2-0.5-0.6-0.6
				c-0.4-0.1-0.6-0.1-1-0.2c-0.6-0.2-0.3-0.6,0-0.7C37.4,15.7,38.2,15.4,38.4,15.2z"/>
			<path fill-rule="evenodd" clip-rule="evenodd" fill="#221714" d="M36.6,18.8c0.1-0.1,0.9-0.4,1.1-0.5c0.2-0.1,0.7-0.3,0.8-0.3
				c0.1,0,0.1,0,0.1,0.1c0,0.1-0.3,0.4-0.8,0.6c-0.4,0.2-0.8,0.3-0.9,0.5c0,0.1-0.1,0.1-0.1,0c0,0-0.2-0.1-0.2-0.2
				C36.5,18.9,36.5,18.8,36.6,18.8z"/>
			<path fill-rule="evenodd" clip-rule="evenodd" fill="#221714" d="M36.9,19.4c0,0,1.1,0.6,1.2,0.6c0.1,0.1,0.2,0.2,0.2,0.4
				c0,0.2-0.1,0.5-0.2,0.5c0,0,0,0,0,0c0,0,0-0.3,0-0.3c0-0.1-0.1-0.1,0-0.2c0.1,0,0.1-0.2,0-0.3C37.9,20,36.9,19.4,36.9,19.4
				C36.8,19.4,36.8,19.3,36.9,19.4z"/>
			<path fill-rule="evenodd" clip-rule="evenodd" fill="#221714" d="M32.3,3.1c0.8-0.4,1.9-0.8,4.3-1.1c1-0.1,3-0.1,5,0.6
				c0.2,0.1,0.1,0.2,0,0.2c-0.1,0-1.8-0.6-4-0.6c-1.3,0-2.7,0.1-5.2,1.1C32.2,3.4,32.1,3.3,32.3,3.1z"/>
			<path fill-rule="evenodd" clip-rule="evenodd" fill="#221714" d="M33.5,2.3c0.6-0.3,1.5-0.5,2.8-0.6c1.3-0.1,2.5,0,3,0
				c0.2,0,0.2,0.2,0,0.1c-0.2,0-2.2-0.1-3.1,0c-0.9,0.1-2.4,0.3-2.7,0.5C33.5,2.5,33.3,2.4,33.5,2.3z"/>
			<path fill-rule="evenodd" clip-rule="evenodd" fill="#221714" d="M39.8,5.1c1.1,0.1,2.6,0.5,3.8,1.1c0.1,0,0.1,0.2-0.1,0.2
				c-0.2-0.1-2.3-1-3.8-1.1C39.6,5.2,39.5,5.1,39.8,5.1z"/>
			<path fill-rule="evenodd" clip-rule="evenodd" fill="#221714" d="M31.9,5.9C33.1,5.3,34,5,35.6,5c0.1,0,0.3,0.2,0,0.2
				c-0.4,0-2.4,0.2-3.8,0.8C31.8,6.1,31.6,5.9,31.9,5.9z"/>
			<path fill-rule="evenodd" clip-rule="evenodd" fill="#221714" d="M29,4.7c0-0.2,0-0.8,0.2-1c0.2-0.2,0.4-0.4,0.7-0.1
				c0.4,0.6,1.2,3.3,0.6,4.2c-0.1,0.3-0.6,0.3-0.8,0.1c-0.2-0.2-0.5-0.6-0.5-1.1c0-0.2,0.1-0.2,0.2,0c0.1,0.2,0.3,0.8,0.5,0.9
				c0.1,0.1,0.3,0.2,0.4-0.1c0.1-0.2,0.4-0.9-0.1-2.5c0-0.1,0-0.1-0.2-0.1C29.7,5,29.5,5,29.4,5.1c-0.1,0.1-0.2-0.1-0.1-0.2
				c0.1-0.1,0.5-0.2,0.6-0.3c0.1,0,0.2-0.2-0.1-0.1c-0.2,0-0.3-0.1-0.2-0.2c0.1,0,0.1-0.1,0.2-0.1c0.1,0,0.1-0.3-0.2-0.2
				c-0.2,0.1-0.4,0-0.4,0.7C29.2,4.9,29,4.8,29,4.7z"/>
			<path fill-rule="evenodd" clip-rule="evenodd" fill="#221714" d="M41.1,7.9c-0.1,0-0.1,0-0.2-0.1c0,0,0-0.1-0.1-0.2
				c-3.2-1-5.5-0.5-6.7-0.1c0,0,0,0,0,0c-0.8,0.2-1.3,0.4-1.5,0.5c-0.2,0.1-0.1,0.2,0.1,0.1c0.9-0.4,3-0.8,4.4-0.8
				c1.6,0,3.6,0.5,3.9,0.6C41.3,8.1,41.3,7.9,41.1,7.9z"/>
		</g>
	</g>
</g>
</svg>
