<?xml version="1.0" encoding="utf-8"?>
<!-- Generator: Adobe Illustrator 19.1.0, SVG Export Plug-In . SVG Version: 6.00 Build 0)  -->
<!DOCTYPE svg PUBLIC "-//W3C//DTD SVG 1.1//EN" "http://www.w3.org/Graphics/SVG/1.1/DTD/svg11.dtd">
<svg version="1.1" id="レイヤー_1" xmlns="http://www.w3.org/2000/svg" xmlns:xlink="http://www.w3.org/1999/xlink" x="0px"
	 y="0px" width="98.9px" height="15px" viewBox="0 0 98.9 15" enable-background="new 0 0 98.9 15" xml:space="preserve">
<g>
	<g>
		<path fill="#040000" d="M1.2,0.7c0.3,0,1.8,0.1,2.4,0.1c1.1,0,1.8-0.1,3.8-0.1c1.7,0,3.1,0.5,4.1,1.5C12.6,3.3,13.2,5,13.2,7
			c0,2.8-1.2,4.5-2.3,5.4c-1.2,1-2.6,1.5-4.8,1.5c-1.1,0-3.1,0-4.7-0.1H0.9c-0.1-0.2-0.1-0.7,0-0.8c0.7,0,1.1-0.1,1.4-0.2
			c0.4-0.1,0.6-0.3,0.6-1C3,10.5,3,8.9,3,7.1c0-1.3,0-3.7,0-4.5C2.9,2,2.6,1.8,2.1,1.7C1.9,1.6,1.6,1.6,1.1,1.5
			C1,1.4,1.1,0.8,1.2,0.7z M5.2,12.4c0.4,0.4,1.2,0.5,1.9,0.5c0.9,0,1.8-0.2,2.7-1.1c0.9-0.9,1.5-2.3,1.5-4.5c0-2.1-0.7-3.8-2.2-4.8
			C8.2,1.9,7.1,1.6,5.9,1.6c-0.4,0-0.7,0-0.9,0.1C4.9,1.8,4.8,2,4.8,2.1c0,0.4,0,3.3,0,5c0,1.7,0,4.2,0,4.5
			C4.8,11.7,5,12.2,5.2,12.4z"/>
		<path fill="#040000" d="M19.7,0.7c0.4,0,1.6,0.1,2.6,0.1c1,0,2.2-0.1,2.7-0.1c0.1,0.1,0.1,0.7,0,0.8c-0.5,0.1-0.9,0.1-1.1,0.2
			c-0.5,0.1-0.5,0.4-0.6,1c-0.1,0.9,0,2.4,0,4.3c0,2,0,3.9,0.1,4.7c0,0.7,0.1,0.9,0.7,1.1c0.3,0.1,0.7,0.1,1.3,0.2
			c0.1,0.1,0,0.8-0.1,0.8c-0.4,0-1.8-0.1-2.8-0.1c-1.1,0-2.5,0.1-2.9,0.1c-0.1-0.1-0.1-0.8,0-0.8c0.5-0.1,0.8-0.1,1.1-0.2
			c0.6-0.2,0.7-0.5,0.7-0.9c0.1-0.6,0.1-1.8,0.1-5.3c0-1.8,0-3,0-3.9c0-0.6-0.1-0.8-0.5-0.9c-0.3-0.1-0.7-0.2-1.3-0.3
			C19.6,1.4,19.6,0.8,19.7,0.7z"/>
		<path fill="#040000" d="M31.1,0.7c0.6,0,1.6,0.1,2.8,0.1h0.9c0.1,0.3,0.2,0.4,0.6,1.1c1.8,2.6,5.4,7.4,6.4,8.7c0,0,0.1,0,0.1,0
			c0-3,0-6.1-0.1-7.7c0-0.7-0.2-0.9-0.8-1.1c-0.4-0.1-0.8-0.2-1.4-0.3c-0.1-0.1-0.1-0.7,0-0.8c0.5,0,1.4,0.1,2.8,0.1
			c0.7,0,1.9-0.1,2.2-0.1c0.1,0.1,0.1,0.7,0,0.8c-0.4,0.1-0.7,0.2-0.9,0.3c-0.5,0.2-0.6,0.5-0.7,1.1c-0.1,1.6-0.1,3.1-0.2,8
			c0,1,0,2.2,0,2.9c-0.2,0-1.3,0-1.5,0c-1.1-1.7-5.7-8.2-7.1-10.1c0,0-0.1,0-0.1,0c0,2.2,0,6.7,0,7.9c0,0.7,0.2,1,0.8,1.1
			c0.3,0.1,0.7,0.1,1.2,0.2c0.1,0.1,0.1,0.7,0,0.8c-0.5,0-1.4-0.1-2.6-0.1c-1.4,0-2.2,0.1-2.6,0.1c-0.1-0.1-0.1-0.7,0-0.8
			c0.5-0.1,0.9-0.1,1.2-0.2c0.4-0.2,0.7-0.5,0.7-1.1c0.1-1.2,0.1-4.3,0.2-8.7c0-0.4-0.1-0.8-0.6-1.1c-0.4-0.1-0.8-0.3-1.5-0.4
			C30.9,1.4,31,0.8,31.1,0.7z"/>
		<path fill="#040000" d="M50.3,0.7c0.6,0,1.6,0.1,2.8,0.1H54C54,1,54.1,1.2,54.6,1.9c1.8,2.6,5.4,7.4,6.4,8.7c0,0,0.1,0,0.1,0
			c0-3,0-6.1-0.1-7.7c0-0.7-0.2-0.9-0.8-1.1c-0.4-0.1-0.8-0.2-1.4-0.3c-0.1-0.1-0.1-0.7,0-0.8c0.5,0,1.4,0.1,2.8,0.1
			c0.7,0,1.9-0.1,2.2-0.1c0.1,0.1,0.1,0.7,0,0.8c-0.4,0.1-0.7,0.2-0.9,0.3c-0.5,0.2-0.6,0.5-0.7,1.1c-0.1,1.6-0.1,3.1-0.2,8
			c0,1,0,2.2,0,2.9c-0.2,0-1.3,0-1.5,0c-1.1-1.7-5.7-8.2-7.1-10.1c0,0-0.1,0-0.1,0c0,2.2,0,6.7,0,7.9c0,0.7,0.2,1,0.8,1.1
			c0.3,0.1,0.7,0.1,1.2,0.2c0.1,0.1,0.1,0.7,0,0.8c-0.5,0-1.4-0.1-2.6-0.1c-1.4,0-2.2,0.1-2.6,0.1c-0.1-0.1-0.1-0.7,0-0.8
			c0.5-0.1,0.9-0.1,1.2-0.2c0.4-0.2,0.7-0.5,0.7-1.1c0.1-1.2,0.1-4.3,0.2-8.7c0-0.4-0.1-0.8-0.6-1.1c-0.4-0.1-0.8-0.3-1.5-0.4
			C50.2,1.4,50.2,0.8,50.3,0.7z"/>
		<path fill="#040000" d="M70,0.7c0.5,0,1.8,0.1,2.8,0.1h3.8c0.7,0,1.7,0,2.2-0.1c0,0,0.1,0.1,0.1,0.1c-0.1,0.6-0.3,2.1-0.3,3
			c-0.1,0.1-0.8,0.1-0.9,0c0-0.6-0.1-0.9-0.2-1.2c-0.2-0.5-0.3-0.7-0.9-0.8c-0.3,0-2.8,0-2.9,0c-0.2,0-0.3,0.3-0.3,0.5
			c0,1.4,0,2.7,0,4.1c0,0,0.1,0.1,0.1,0.1c1,0,2.1,0,2.8-0.1c0.3,0,0.4-0.2,0.5-0.5c0.1-0.3,0.2-0.6,0.2-0.9C77.4,5,78,5,78.1,5.1
			c0,0.5-0.1,1.3-0.1,2.1c0,0.7,0,1.4,0,2.1c-0.1,0.1-0.8,0.1-0.9,0c-0.1-0.5-0.1-0.7-0.2-1c-0.1-0.3-0.3-0.5-0.5-0.5
			c-0.6-0.1-1.9-0.1-2.7-0.1c-0.1,0-0.1,0.1-0.1,0.2c0,1.4,0,3,0,3.8c0,0.3,0.2,0.7,0.4,0.8c0.4,0.1,2.8,0.1,3.2,0.1
			c0.5,0,0.8-0.2,1.2-0.8c0.3-0.4,0.7-1.3,0.9-1.8c0.2,0,0.7,0.2,0.8,0.3c-0.1,0.7-0.5,2.3-0.8,3c-0.1,0.3-0.2,0.4-1.2,0.4
			c-2,0-3.8-0.1-5.2-0.1c-1.3,0-2.6,0.1-3.3,0.1c-0.1-0.1-0.1-0.7,0-0.8c0.7-0.1,1.3-0.1,1.6-0.3c0.5-0.1,0.6-0.4,0.6-1.1
			c0-0.4,0-2.6,0-4.9c0-1.8,0-3.6,0-4c0-0.7-0.1-0.9-0.5-1c-0.3-0.1-0.6-0.1-1.1-0.2C69.9,1.4,69.9,0.8,70,0.7z"/>
		<path fill="#040000" d="M86,0.7c0.4,0,1.7,0.1,2.4,0.1c1.5,0,2.6,0,3.3,0c2.2,0,3.5,1.5,3.5,3.3c0,1.7-0.9,2.8-2.1,3.4
			c0,0-0.1,0.1,0,0.2c0.7,1.2,2.1,3.1,3,4.3c0.7,0.8,0.9,0.9,2.3,1.2c0.1,0.1,0,0.8-0.2,0.8c-0.9,0-2.5,0-3.3-0.4
			c-0.3-0.2-0.6-0.4-1-0.9c-0.7-1-1.8-2.8-2.5-3.9c-0.1-0.2-0.3-0.3-0.5-0.3c-0.2,0-1.1,0-1.4,0c0,0-0.1,0.1-0.1,0.1
			c0,1.2,0,3,0,3.5c0,0.6,0.2,0.8,0.7,0.9c0.3,0.1,0.6,0.1,1.2,0.2c0.1,0.1,0.1,0.8-0.1,0.8c-0.4,0-1.2-0.1-2.8-0.1
			c-1.2,0-2.2,0.1-2.6,0.1c-0.1-0.1-0.1-0.7,0-0.8c0.4,0,0.7-0.1,1-0.2c0.5-0.1,0.6-0.3,0.7-1.1c0-0.4,0.1-3.1,0.1-4.3
			c0-2.8,0-4.2,0-4.7c0-0.6-0.1-0.8-0.6-1c-0.3-0.1-0.7-0.1-1.1-0.2C85.8,1.4,85.9,0.8,86,0.7z M89.7,1.8c-0.1,0-0.2,0.2-0.2,0.3
			c0,0.8,0,3.6,0,5c0,0,0,0.1,0.1,0.1c1.8,0,2.3-0.1,2.6-0.3c0.6-0.4,1.1-1.2,1.1-2.2c0-2-0.9-3.1-2.9-3.1
			C90.3,1.6,89.9,1.7,89.7,1.8z"/>
	</g>
</g>
</svg>
